waveform2.vcd
$date
	Wed Jul 12 00:28:51 2023
$end
$version
	Icarus Verilog
$end
$timescale
	1s
$end
$scope module testbench $end
$var wire 32 ! WriteData [31:0] $end
$var wire 1 " MemWrite $end
$var wire 32 # DataAdr [31:0] $end
$var reg 1 $ clk $end
$var reg 1 % reset $end
$scope module dut $end
$var wire 1 $ clk $end
$var wire 1 % reset $end
$var wire 32 & WriteData [31:0] $end
$var wire 32 ' ReadData [31:0] $end
$var wire 32 ( PC [31:0] $end
$var wire 1 " MemWrite $end
$var wire 32 ) Instr [31:0] $end
$var wire 32 * DataAdr [31:0] $end
$scope module arm $end
$var wire 1 $ clk $end
$var wire 1 % reset $end
$var wire 32 + WriteData [31:0] $end
$var wire 1 , StallF $end
$var wire 1 - StallD $end
$var wire 1 . RegWriteW $end
$var wire 1 / RegWriteM $end
$var wire 2 0 RegSrc [1:0] $end
$var wire 32 1 ReadData [31:0] $end
$var wire 1 2 PCWrPendingF $end
$var wire 1 3 PCSrcW $end
$var wire 32 4 PC [31:0] $end
$var wire 1 5 MemtoRegW $end
$var wire 1 6 MemtoRegE $end
$var wire 1 " MemWrite $end
$var wire 1 7 Match_2E_W $end
$var wire 1 8 Match_2E_M $end
$var wire 1 9 Match_1E_W $end
$var wire 1 : Match_1E_M $end
$var wire 1 ; Match_12D_E $end
$var wire 32 < InstrD [31:0] $end
$var wire 32 = Instr [31:0] $end
$var wire 2 > ImmSrc [1:0] $end
$var wire 2 ? ForwardBE [1:0] $end
$var wire 2 @ ForwardAE [1:0] $end
$var wire 1 A FlushE $end
$var wire 1 B FlushD $end
$var wire 1 C BranchTakenE $end
$var wire 1 D ALUSrc $end
$var wire 32 E ALUResult [31:0] $end
$var wire 4 F ALUFlags [3:0] $end
$var wire 2 G ALUControl [1:0] $end
$scope module c $end
$var wire 20 H Instr [31:12] $end
$var wire 1 $ clk $end
$var wire 1 % reset $end
$var wire 1 . RegWriteW $end
$var wire 1 / RegWriteM $end
$var wire 1 I RegWriteE $end
$var wire 1 J RegWriteD $end
$var wire 1 K RegWriteBM $end
$var wire 2 L RegSrcD [1:0] $end
$var wire 1 2 PCWrPendingF $end
$var wire 1 3 PCSrcW $end
$var wire 1 M PCSrcM $end
$var wire 1 N PCSrcE $end
$var wire 1 O PCSE $end
$var wire 1 P PCSD $end
$var wire 1 5 MemtoRegW $end
$var wire 1 Q MemtoRegM $end
$var wire 1 6 MemtoRegE $end
$var wire 1 R MemtoRegD $end
$var wire 1 " MemWriteM $end
$var wire 1 S MemWriteE $end
$var wire 1 T MemWriteD $end
$var wire 1 U MemWriteBM $end
$var wire 2 V ImmSrcD [1:0] $end
$var wire 1 A FlushE $end
$var wire 4 W FlagsE [3:0] $end
$var wire 2 X FlagWriteE [1:0] $end
$var wire 2 Y FlagWriteD [1:0] $end
$var wire 4 Z CondE [3:0] $end
$var wire 1 C BranchTakenE $end
$var wire 1 [ BranchE $end
$var wire 1 \ BranchD $end
$var wire 1 D ALUSrcE $end
$var wire 1 ] ALUSrcD $end
$var wire 4 ^ ALUFlagsResult [3:0] $end
$var wire 4 _ ALUFlags [3:0] $end
$var wire 2 ` ALUControlE [1:0] $end
$var wire 2 a ALUControlD [1:0] $end
$scope module ModAluControlE $end
$var wire 1 $ clk $end
$var wire 1 b en $end
$var wire 1 % reset $end
$var wire 2 c d [1:0] $end
$var reg 2 d q [1:0] $end
$upscope $end
$scope module ModAluSrcE $end
$var wire 1 $ clk $end
$var wire 1 e en $end
$var wire 1 % reset $end
$var wire 1 ] d $end
$var reg 1 D q $end
$upscope $end
$scope module ModBranchE $end
$var wire 1 $ clk $end
$var wire 1 f en $end
$var wire 1 % reset $end
$var wire 1 \ d $end
$var reg 1 [ q $end
$upscope $end
$scope module ModCondE $end
$var wire 1 $ clk $end
$var wire 4 g d [3:0] $end
$var wire 1 h en $end
$var wire 1 % reset $end
$var reg 4 i q [3:0] $end
$upscope $end
$scope module ModFlagWriteE $end
$var wire 1 $ clk $end
$var wire 1 j en $end
$var wire 1 % reset $end
$var wire 2 k d [1:0] $end
$var reg 2 l q [1:0] $end
$upscope $end
$scope module ModFlagsE $end
$var wire 1 $ clk $end
$var wire 1 m en $end
$var wire 1 % reset $end
$var wire 4 n d [3:0] $end
$var reg 4 o q [3:0] $end
$upscope $end
$scope module ModMemWriteE $end
$var wire 1 $ clk $end
$var wire 1 p en $end
$var wire 1 % reset $end
$var wire 1 T d $end
$var reg 1 S q $end
$upscope $end
$scope module ModMemWriteM $end
$var wire 1 $ clk $end
$var wire 1 % reset $end
$var wire 1 U d $end
$var reg 1 " q $end
$upscope $end
$scope module ModMemtoRegE $end
$var wire 1 $ clk $end
$var wire 1 q en $end
$var wire 1 % reset $end
$var wire 1 R d $end
$var reg 1 6 q $end
$upscope $end
$scope module ModMemtoregM $end
$var wire 1 $ clk $end
$var wire 1 6 d $end
$var wire 1 % reset $end
$var reg 1 Q q $end
$upscope $end
$scope module ModPCSE $end
$var wire 1 $ clk $end
$var wire 1 r en $end
$var wire 1 % reset $end
$var wire 1 P d $end
$var reg 1 O q $end
$upscope $end
$scope module ModPCSrcM $end
$var wire 1 $ clk $end
$var wire 1 % reset $end
$var wire 1 N d $end
$var reg 1 M q $end
$upscope $end
$scope module ModRegMemtoRegW $end
$var wire 1 $ clk $end
$var wire 1 Q d $end
$var wire 1 % reset $end
$var reg 1 5 q $end
$upscope $end
$scope module ModRegPCSrcW $end
$var wire 1 $ clk $end
$var wire 1 M d $end
$var wire 1 % reset $end
$var reg 1 3 q $end
$upscope $end
$scope module ModRegWriteE $end
$var wire 1 $ clk $end
$var wire 1 s en $end
$var wire 1 % reset $end
$var wire 1 J d $end
$var reg 1 I q $end
$upscope $end
$scope module ModRegWriteM $end
$var wire 1 $ clk $end
$var wire 1 % reset $end
$var wire 1 K d $end
$var reg 1 / q $end
$upscope $end
$scope module ModRegWriteW $end
$var wire 1 $ clk $end
$var wire 1 / d $end
$var wire 1 % reset $end
$var reg 1 . q $end
$upscope $end
$scope module cl $end
$var wire 1 [ Branch $end
$var wire 1 C BranchTakenE $end
$var wire 4 t Cond [3:0] $end
$var wire 2 u FlagW [1:0] $end
$var wire 4 v FlagsE [3:0] $end
$var wire 1 S MemW $end
$var wire 1 U MemWrite $end
$var wire 1 O PCS $end
$var wire 1 N PCSrc $end
$var wire 1 I RegW $end
$var wire 1 K RegWrite $end
$var wire 1 $ clk $end
$var wire 1 % reset $end
$var wire 1 w FlagWrite $end
$var wire 1 x CondEx $end
$var wire 4 y ALUFlagsResult [3:0] $end
$var wire 4 z ALUFlags [3:0] $end
$scope module Flags_first $end
$var wire 2 { d0 [1:0] $end
$var wire 2 | d1 [1:0] $end
$var wire 1 } s $end
$var wire 2 ~ y [1:0] $end
$upscope $end
$scope module Flags_second $end
$var wire 2 !" d0 [1:0] $end
$var wire 2 "" d1 [1:0] $end
$var wire 1 #" s $end
$var wire 2 $" y [1:0] $end
$upscope $end
$scope module cc $end
$var wire 4 %" Cond [3:0] $end
$var wire 4 &" Flags [3:0] $end
$var wire 1 '" ge $end
$var wire 1 (" zero $end
$var wire 1 )" overflow $end
$var wire 1 *" neg $end
$var wire 1 +" carry $end
$var reg 1 x CondEx $end
$upscope $end
$upscope $end
$scope module dec $end
$var wire 6 ," Funct [5:0] $end
$var wire 2 -" Op [1:0] $end
$var wire 1 P PCS $end
$var wire 4 ." Rd [3:0] $end
$var wire 1 J RegW $end
$var wire 2 /" RegSrc [1:0] $end
$var wire 1 R MemtoReg $end
$var wire 1 T MemW $end
$var wire 2 0" ImmSrc [1:0] $end
$var wire 1 \ Branch $end
$var wire 1 ] ALUSrc $end
$var wire 1 1" ALUOp $end
$var reg 2 2" ALUControl [1:0] $end
$var reg 2 3" FlagW [1:0] $end
$var reg 10 4" controls [9:0] $end
$upscope $end
$upscope $end
$scope module dp $end
$var wire 2 5" ALUControlE [1:0] $end
$var wire 1 D ALUSrcE $end
$var wire 1 C BranchTakenE $end
$var wire 2 6" ImmSrcD [1:0] $end
$var wire 1 5 MemtoRegW $end
$var wire 1 3 PCSrcW $end
$var wire 2 7" RegSrcD [1:0] $end
$var wire 1 . RegWriteW $end
$var wire 1 $ clk $end
$var wire 1 8" n_clk $end
$var wire 1 % reset $end
$var wire 32 9" WriteDataM [31:0] $end
$var wire 32 :" WriteDataE [31:0] $end
$var wire 32 ;" WriteDataD [31:0] $end
$var wire 4 <" WA3W [3:0] $end
$var wire 4 =" WA3M [3:0] $end
$var wire 4 >" WA3E [3:0] $end
$var wire 1 , StallF $end
$var wire 1 - StallD $end
$var wire 32 ?" SrcBE [31:0] $end
$var wire 32 @" SrcAE [31:0] $end
$var wire 32 A" SrcAD [31:0] $end
$var wire 32 B" ResultW [31:0] $end
$var wire 32 C" ReadDataW [31:0] $end
$var wire 32 D" ReadDataM [31:0] $end
$var wire 32 E" RD2E [31:0] $end
$var wire 32 F" RD1E [31:0] $end
$var wire 4 G" RA2E [3:0] $end
$var wire 4 H" RA2 [3:0] $end
$var wire 4 I" RA1E [3:0] $end
$var wire 4 J" RA1 [3:0] $end
$var wire 32 K" PCPlusNext [31:0] $end
$var wire 32 L" PCPlus4F8D [31:0] $end
$var wire 32 M" PCNext [31:0] $end
$var wire 32 N" PCF [31:0] $end
$var wire 1 7 Match_2E_W $end
$var wire 1 8 Match_2E_M $end
$var wire 1 9 Match_1E_W $end
$var wire 1 : Match_1E_M $end
$var wire 1 ; Match_12D_E $end
$var wire 32 O" InstrF [31:0] $end
$var wire 32 P" InstrD [31:0] $end
$var wire 2 Q" ForwardBE [1:0] $end
$var wire 2 R" ForwardAE [1:0] $end
$var wire 1 A FlushE $end
$var wire 1 B FlushD $end
$var wire 32 S" ExtImmE [31:0] $end
$var wire 32 T" ExtImmD [31:0] $end
$var wire 32 U" ALUResultE [31:0] $end
$var wire 32 V" ALUOutW [31:0] $end
$var wire 32 W" ALUOutM [31:0] $end
$var wire 4 X" ALUFlags [3:0] $end
$scope module ForwardAEMux $end
$var wire 32 Y" y [31:0] $end
$var wire 2 Z" s [1:0] $end
$var wire 32 [" d2 [31:0] $end
$var wire 32 \" d1 [31:0] $end
$var wire 32 ]" d0 [31:0] $end
$upscope $end
$scope module ForwardBEMux $end
$var wire 32 ^" y [31:0] $end
$var wire 2 _" s [1:0] $end
$var wire 32 `" d2 [31:0] $end
$var wire 32 a" d1 [31:0] $end
$var wire 32 b" d0 [31:0] $end
$upscope $end
$scope module PcOrAluResult $end
$var wire 1 C s $end
$var wire 32 c" y [31:0] $end
$var wire 32 d" d1 [31:0] $end
$var wire 32 e" d0 [31:0] $end
$upscope $end
$scope module RA1ERet $end
$var wire 1 $ clk $end
$var wire 1 % reset $end
$var wire 4 f" d [3:0] $end
$var reg 4 g" q [3:0] $end
$upscope $end
$scope module RA2ERet $end
$var wire 1 $ clk $end
$var wire 1 % reset $end
$var wire 4 h" d [3:0] $end
$var reg 4 i" q [3:0] $end
$upscope $end
$scope module RegALUOutM $end
$var wire 1 $ clk $end
$var wire 1 % reset $end
$var wire 32 j" d [31:0] $end
$var reg 32 k" q [31:0] $end
$upscope $end
$scope module RegAlu $end
$var wire 1 $ clk $end
$var wire 1 % reset $end
$var wire 32 l" d [31:0] $end
$var reg 32 m" q [31:0] $end
$upscope $end
$scope module RegExtend $end
$var wire 1 $ clk $end
$var wire 1 n" en $end
$var wire 1 % reset $end
$var wire 32 o" d [31:0] $end
$var reg 32 p" q [31:0] $end
$upscope $end
$scope module RegInsr $end
$var wire 1 $ clk $end
$var wire 1 q" en0 $end
$var wire 1 % reset $end
$var wire 1 B en1 $end
$var wire 32 r" d [31:0] $end
$var reg 32 s" q [31:0] $end
$upscope $end
$scope module RegRD1 $end
$var wire 1 $ clk $end
$var wire 1 t" en $end
$var wire 1 % reset $end
$var wire 32 u" d [31:0] $end
$var reg 32 v" q [31:0] $end
$upscope $end
$scope module RegRD2 $end
$var wire 1 $ clk $end
$var wire 1 w" en $end
$var wire 1 % reset $end
$var wire 32 x" d [31:0] $end
$var reg 32 y" q [31:0] $end
$upscope $end
$scope module RegReadData $end
$var wire 1 $ clk $end
$var wire 1 % reset $end
$var wire 32 z" d [31:0] $end
$var reg 32 {" q [31:0] $end
$upscope $end
$scope module RegWA3E $end
$var wire 1 $ clk $end
$var wire 4 |" d [3:0] $end
$var wire 1 }" en $end
$var wire 1 % reset $end
$var reg 4 ~" q [3:0] $end
$upscope $end
$scope module RegWA3M $end
$var wire 1 $ clk $end
$var wire 4 !# d [3:0] $end
$var wire 1 % reset $end
$var reg 4 "# q [3:0] $end
$upscope $end
$scope module RegWA3W $end
$var wire 1 $ clk $end
$var wire 4 ## d [3:0] $end
$var wire 1 % reset $end
$var reg 4 $# q [3:0] $end
$upscope $end
$scope module RegWriteDataM $end
$var wire 1 $ clk $end
$var wire 32 %# d [31:0] $end
$var wire 1 % reset $end
$var reg 32 &# q [31:0] $end
$upscope $end
$scope module alu $end
$var wire 2 '# ALUControl [1:0] $end
$var wire 32 (# SrcA [31:0] $end
$var wire 1 )# carry $end
$var wire 1 *# overflow $end
$var wire 1 +# zero $end
$var wire 33 ,# sum [32:0] $end
$var wire 1 -# neg $end
$var wire 32 .# SrcB [31:0] $end
$var wire 4 /# ALUFlags [3:0] $end
$var reg 32 0# ALUResult [31:0] $end
$upscope $end
$scope module ext $end
$var wire 2 1# ImmSrc [1:0] $end
$var wire 24 2# Instr [23:0] $end
$var reg 32 3# ExtImm [31:0] $end
$upscope $end
$scope module pcadd $end
$var wire 32 4# b [31:0] $end
$var wire 32 5# y [31:0] $end
$var wire 32 6# a [31:0] $end
$upscope $end
$scope module pcmux $end
$var wire 32 7# d0 [31:0] $end
$var wire 1 3 s $end
$var wire 32 8# y [31:0] $end
$var wire 32 9# d1 [31:0] $end
$upscope $end
$scope module pcreg $end
$var wire 1 $ clk $end
$var wire 32 :# d [31:0] $end
$var wire 1 ;# en $end
$var wire 1 % reset $end
$var reg 32 <# q [31:0] $end
$upscope $end
$scope module ra1mux $end
$var wire 4 =# d0 [3:0] $end
$var wire 4 ># d1 [3:0] $end
$var wire 1 ?# s $end
$var wire 4 @# y [3:0] $end
$upscope $end
$scope module ra2mux $end
$var wire 4 A# d0 [3:0] $end
$var wire 4 B# d1 [3:0] $end
$var wire 1 C# s $end
$var wire 4 D# y [3:0] $end
$upscope $end
$scope module resmux $end
$var wire 32 E# d0 [31:0] $end
$var wire 32 F# d1 [31:0] $end
$var wire 1 5 s $end
$var wire 32 G# y [31:0] $end
$upscope $end
$scope module rf $end
$var wire 1 8" clk $end
$var wire 32 H# r15 [31:0] $end
$var wire 4 I# ra1 [3:0] $end
$var wire 4 J# ra2 [3:0] $end
$var wire 4 K# wa3 [3:0] $end
$var wire 32 L# wd3 [31:0] $end
$var wire 1 . we3 $end
$var wire 32 M# rd2 [31:0] $end
$var wire 32 N# rd1 [31:0] $end
$upscope $end
$scope module srcbmux $end
$var wire 32 O# d0 [31:0] $end
$var wire 32 P# d1 [31:0] $end
$var wire 1 D s $end
$var wire 32 Q# y [31:0] $end
$upscope $end
$upscope $end
$scope module hU $end
$var wire 1 C BranchTakenE $end
$var wire 1 ; Match_12D_E $end
$var wire 1 : Match_1E_M $end
$var wire 1 9 Match_1E_W $end
$var wire 1 8 Match_2E_M $end
$var wire 1 7 Match_2E_W $end
$var wire 1 6 MemtoRegE $end
$var wire 1 3 PCSrcW $end
$var wire 1 2 PCWrPendingF $end
$var wire 1 / RegWriteM $end
$var wire 1 . RegWriteW $end
$var wire 1 - StallD $end
$var wire 1 , StallF $end
$var wire 1 R# LDRstall $end
$var wire 1 A FlushE $end
$var wire 1 B FlushD $end
$var reg 2 S# ForwardAE [1:0] $end
$var reg 2 T# ForwardBE [1:0] $end
$upscope $end
$upscope $end
$scope module dmem $end
$var wire 32 U# a [31:0] $end
$var wire 1 $ clk $end
$var wire 32 V# rd [31:0] $end
$var wire 32 W# wd [31:0] $end
$var wire 1 " we $end
$upscope $end
$scope module imem $end
$var wire 32 X# a [31:0] $end
$var wire 32 Y# rd [31:0] $end
$upscope $end
$upscope $end
$upscope $end
$enddefinitions $end
#0
$dumpvars
b11100000010011110000000000001111 Y#
b0 X#
b0 W#
bx V#
b0 U#
b0 T#
b0 S#
0R#
b0 Q#
b0 P#
b0 O#
bx N#
bx M#
b0 L#
b0 K#
b0 J#
b0 I#
b100 H#
b0 G#
b0 F#
b0 E#
b0 D#
0C#
b0 B#
b0 A#
b0 @#
0?#
b1111 >#
b0 =#
b0 <#
1;#
b100 :#
b0 9#
b100 8#
b100 7#
b0 6#
b100 5#
b100 4#
b0 3#
b0 2#
b0 1#
b0 0#
b100 /#
b0 .#
0-#
b0 ,#
1+#
0*#
0)#
b0 (#
b0 '#
b0 &#
b0 %#
b0 $#
b0 ##
b0 "#
b0 !#
b0 ~"
1}"
b0 |"
b0 {"
bx z"
b0 y"
bx x"
1w"
b0 v"
bx u"
1t"
b0 s"
b11100000010011110000000000001111 r"
1q"
b0 p"
b0 o"
1n"
b0 m"
b0 l"
b0 k"
b0 j"
b0 i"
b0 h"
b0 g"
b0 f"
b100 e"
b0 d"
b100 c"
b0 b"
b0 a"
b0 `"
b0 _"
b0 ^"
b0 ]"
b0 \"
b0 ["
b0 Z"
b0 Y"
b100 X"
b0 W"
b0 V"
b0 U"
b0 T"
b0 S"
b0 R"
b0 Q"
b0 P"
b11100000010011110000000000001111 O"
b0 N"
b100 M"
b100 L"
b100 K"
b0 J"
b0 I"
b0 H"
b0 G"
b0 F"
b0 E"
bx D"
b0 C"
b0 B"
bx A"
b0 @"
b0 ?"
b0 >"
b0 ="
b0 <"
bx ;"
b0 :"
b0 9"
08"
b0 7"
b0 6"
b0 5"
b1001 4"
b0 3"
b10 2"
11"
b0 0"
b0 /"
b0 ."
b0 -"
b0 ,"
0+"
0*"
0)"
0("
1'"
b0 &"
b0 %"
b0 $"
0#"
b0 ""
b0 !"
b0 ~
0}
b1 |
b0 {
b100 z
b0 y
0x
0w
b0 v
b0 u
b0 t
1s
1r
1q
1p
b0 o
b0 n
1m
b0 l
b0 k
1j
b0 i
1h
b0 g
1f
1e
b0 d
b10 c
1b
b10 a
b0 `
b100 _
b0 ^
0]
0\
0[
b0 Z
b0 Y
b0 X
b0 W
b0 V
0U
0T
0S
0R
0Q
0P
0O
0N
0M
b0 L
0K
1J
0I
b0 H
b0 G
b100 F
b0 E
0D
0C
0B
0A
b0 @
b0 ?
b0 >
b11100000010011110000000000001111 =
b0 <
0;
1:
19
18
17
06
05
b0 4
03
02
bx 1
b0 0
0/
0.
0-
0,
b0 +
b0 *
b11100000010011110000000000001111 )
b0 (
bx '
b0 &
1%
1$
b0 #
0"
b0 !
$end
#5
18"
0$
#10
08"
1$
#15
18"
0$
#20
08"
1$
#22
0%
#25
18"
0$
#30
x-#
bx |
bx00 F
bx00 _
bx00 z
bx00 X"
bx00 /#
x+#
bx U"
bx d"
bx l"
bx 0#
bx ?"
bx .#
bx Q#
b1000 ;"
b1000 x"
b1000 M#
b1000 A"
b1000 u"
b1000 N#
b1 a
b1 c
b1 2"
bx :"
bx ^"
bx %#
bx O#
bx ,#
bx @"
bx Y"
bx (#
b1111 T"
b1111 o"
b1111 3#
b1111 H"
b1111 h"
b1111 D#
b1111 J#
0;
b1111 J"
b1111 f"
b1111 @#
b1111 I#
b100 ,"
b1110 g
b1000 M"
b1000 c"
b1000 :#
b10011110000000000001111 2#
b1111 A#
b1111 =#
b11100000010011110000 H
b11100010010011110001000000000001 )
b11100010010011110001000000000001 =
b11100010010011110001000000000001 O"
b11100010010011110001000000000001 r"
b11100010010011110001000000000001 Y#
b1000 K"
b1000 e"
b1000 8#
bx C"
bx {"
bx F#
bx E"
bx b"
bx y"
bx F"
bx ]"
bx v"
b11100000010011110000000000001111 <
b11100000010011110000000000001111 P"
b11100000010011110000000000001111 s"
b1000 L"
b1000 5#
b1000 7#
b1000 H#
b100 (
b100 4
b100 N"
b100 6#
b100 <#
b100 X#
b10 G
b10 `
b10 d
b10 5"
b10 '#
1I
08"
1$
#35
18"
0$
#40
0-#
b1 |
1+#
b0 U"
b0 d"
b0 l"
b0 0#
b0 ,#
b0 ""
0*#
1]
b100 F
b100 _
b100 z
b100 X"
b100 /#
0)#
b101001 4"
b1000 ?"
b1000 .#
b1000 Q#
1K
b1100 M"
b1100 c"
b1100 :#
b1 T"
b1 o"
b1 3#
b1 H"
b1 h"
b1 D#
b1 J#
b100100 ,"
b1 ."
b1000 @"
b1000 Y"
b1000 (#
b1000 :"
b1000 ^"
b1000 %#
b1000 O#
1x
b11100010010011110010000000000010 )
b11100010010011110010000000000010 =
b11100010010011110010000000000010 O"
b11100010010011110010000000000010 r"
b11100010010011110010000000000010 Y#
b1100 K"
b1100 e"
b1100 8#
b1100 A"
b1100 u"
b1100 N#
bx ;"
bx x"
bx M#
b10011110001000000000001 2#
b1 |"
b1 B#
b1 A#
b11100010010011110001 H
b1 G
b1 `
b1 d
b1 5"
b1 '#
b1110 Z
b1110 i
b1110 t
b1110 %"
b1100 L"
b1100 5#
b1100 7#
b1100 H#
b1000 (
b1000 4
b1000 N"
b1000 6#
b1000 <#
b1000 X#
b11100010010011110001000000000001 <
b11100010010011110001000000000001 P"
b11100010010011110001000000000001 s"
b1000 F"
b1000 ]"
b1000 v"
b1000 E"
b1000 b"
b1000 y"
b1111 S"
b1111 p"
b1111 P#
bx #
bx *
bx E
bx W"
bx ["
bx `"
bx j"
bx m"
bx U#
bx !
bx &
bx +
bx 9"
bx &#
bx W#
09
0:
b1111 I"
b1111 g"
07
08
b1111 G"
b1111 i"
08"
1$
#45
18"
0$
#50
b0 |
b0 F
b0 _
b0 z
b0 X"
b0 /#
0+#
b1011 U"
b1011 d"
b1011 l"
b1011 0#
bx :"
bx ^"
bx %#
bx O#
b1011 ,#
b1100 @"
b1100 Y"
b1100 (#
b10 T"
b10 o"
b10 3#
b10 H"
b10 h"
b10 D#
b10 J#
b10 ."
b10000 M"
b10000 c"
b10000 :#
bx B"
bx \"
bx a"
bx 9#
bx G#
bx L#
b10011110010000000000010 2#
b10 |"
b10 B#
b10 A#
b11100010010011110010 H
b11100010100000000011000000000010 )
b11100010100000000011000000000010 =
b11100010100000000011000000000010 O"
b11100010100000000011000000000010 r"
b11100010100000000011000000000010 Y#
b10000 K"
b10000 e"
b10000 8#
b10000 A"
b10000 u"
b10000 N#
b1 ?"
b1 .#
b1 Q#
b1 G"
b1 i"
bx V"
bx k"
bx E#
b1000 !
b1000 &
b1000 +
b1000 9"
b1000 &#
b1000 W#
b0 #
b0 *
b0 E
b0 W"
b0 ["
b0 `"
b0 j"
b0 m"
b0 U#
b1 S"
b1 p"
b1 P#
0;
b1 >"
b1 ~"
b1 !#
bx E"
bx b"
bx y"
b1100 F"
b1100 ]"
b1100 v"
b11100010010011110010000000000010 <
b11100010010011110010000000000010 P"
b11100010010011110010000000000010 s"
b10000 L"
b10000 5#
b10000 7#
b10000 H#
b1100 (
b1100 4
b1100 N"
b1100 6#
b1100 <#
b1100 X#
1/
1D
08"
1$
#55
18"
0$
#60
b0 a
b0 c
b0 2"
b1110 U"
b1110 d"
b1110 l"
b1110 0#
b10100 M"
b10100 c"
b10100 :#
b0 J"
b0 f"
b0 @#
b0 I#
b101000 ,"
b11 ."
b1110 ,#
b10000 @"
b10000 Y"
b10000 (#
b11100010100000000101000000000001 )
b11100010100000000101000000000001 =
b11100010100000000101000000000001 O"
b11100010100000000101000000000001 r"
b11100010100000000101000000000001 Y#
b10100 K"
b10100 e"
b10100 8#
bx A"
bx u"
bx N#
b100000000011000000000010 2#
b11 |"
b11 B#
b0 =#
b11100010100000000011 H
b10 ?"
b10 .#
b10 Q#
b0 B"
b0 \"
b0 a"
b0 9#
b0 G#
b0 L#
1.
b10100 L"
b10100 5#
b10100 7#
b10100 H#
b10000 (
b10000 4
b10000 N"
b10000 6#
b10000 <#
b10000 X#
b11100010100000000011000000000010 <
b11100010100000000011000000000010 P"
b11100010100000000011000000000010 s"
b10000 F"
b10000 ]"
b10000 v"
1;
b10 >"
b10 ~"
b10 !#
b10 S"
b10 p"
b10 P#
b1011 #
b1011 *
b1011 E
b1011 W"
b1011 ["
b1011 `"
b1011 j"
b1011 m"
b1011 U#
bx !
bx &
bx +
bx 9"
bx &#
bx W#
b1 ="
b1 "#
b1 ##
b0 V"
b0 k"
b0 E#
b10 G"
b10 i"
08"
1$
#65
b0 A"
b0 u"
b0 N#
18"
0$
#70
b1110 :"
b1110 ^"
b1110 %#
b1110 O#
b10 U"
b10 d"
b10 l"
b10 0#
b0 @"
b0 Y"
b0 (#
b1 T"
b1 o"
b1 3#
b1 H"
b1 h"
b1 D#
b1 J#
b101 ."
b11000 M"
b11000 c"
b11000 :#
b10 ,#
b1011 B"
b1011 \"
b1011 a"
b1011 9#
b1011 G#
b1011 L#
b10 ?
b10 Q"
b10 _"
b10 T#
b100000000101000000000001 2#
b101 |"
b101 B#
b1 A#
b11100010100000000101 H
b11100000100000010100000000000010 )
b11100000100000010100000000000010 =
b11100000100000010100000000000010 O"
b11100000100000010100000000000010 r"
b11100000100000010100000000000010 Y#
b11000 K"
b11000 e"
b11000 8#
b0 I"
b0 g"
b1 <"
b1 $#
b1 K#
b1011 V"
b1011 k"
b1011 E#
18
b10 ="
b10 "#
b10 ##
b1110 #
b1110 *
b1110 E
b1110 W"
b1110 ["
b1110 `"
b1110 j"
b1110 m"
b1110 U#
0;
b11 >"
b11 ~"
b11 !#
b0 F"
b0 ]"
b0 v"
b11100010100000000101000000000001 <
b11100010100000000101000000000001 P"
b11100010100000000101000000000001 s"
b11000 L"
b11000 5#
b11000 7#
b11000 H#
b10100 (
b10100 4
b10100 N"
b10100 6#
b10100 <#
b10100 X#
b0 G
b0 `
b0 d
b0 5"
b0 '#
08"
1$
#75
b1011 ;"
b1011 x"
b1011 M#
18"
0$
#80
0]
bx ;"
bx x"
bx M#
b1011 A"
b1011 u"
b1011 N#
b1001 4"
b1 U"
b1 d"
b1 l"
b1 0#
b11100 M"
b11100 c"
b11100 :#
b10 T"
b10 o"
b10 3#
b10 H"
b10 h"
b10 D#
b10 J#
b1 J"
b1 f"
b1 @#
b1 I#
b1000 ,"
b100 ."
b1 ,#
b11100000010001000010000000000011 )
b11100000010001000010000000000011 =
b11100000010001000010000000000011 O"
b11100000010001000010000000000011 r"
b11100000010001000010000000000011 Y#
b11100 K"
b11100 e"
b11100 8#
b100000010100000000000010 2#
b100 |"
b100 B#
b10 A#
b1 =#
b11100000100000010100 H
b1 ?"
b1 .#
b1 Q#
b1011 :"
b1011 ^"
b1011 %#
b1011 O#
b1110 B"
b1110 \"
b1110 a"
b1110 9#
b1110 G#
b1110 L#
b0 ?
b0 Q"
b0 _"
b0 T#
b11100 L"
b11100 5#
b11100 7#
b11100 H#
b11000 (
b11000 4
b11000 N"
b11000 6#
b11000 <#
b11000 X#
b11100000100000010100000000000010 <
b11100000100000010100000000000010 P"
b11100000100000010100000000000010 s"
b1011 E"
b1011 b"
b1011 y"
b101 >"
b101 ~"
b101 !#
b1 S"
b1 p"
b1 P#
b10 #
b10 *
b10 E
b10 W"
b10 ["
b10 `"
b10 j"
b10 m"
b10 U#
b1110 !
b1110 &
b1110 +
b1110 9"
b1110 &#
b1110 W#
b11 ="
b11 "#
b11 ##
b1110 V"
b1110 k"
b1110 E#
b10 <"
b10 $#
b10 K#
07
08
b1 G"
b1 i"
08"
1$
#85
b1110 ;"
b1110 x"
b1110 M#
18"
0$
#90
bx ;"
bx x"
bx M#
bx A"
bx u"
bx N#
b1 a
b1 c
b1 2"
b11001 U"
b11001 d"
b11001 l"
b11001 0#
b1110 :"
b1110 ^"
b1110 %#
b1110 O#
b1011 @"
b1011 Y"
b1011 (#
b11 T"
b11 o"
b11 3#
b11 H"
b11 h"
b11 D#
b11 J#
1;
b100 J"
b100 f"
b100 @#
b100 I#
b100 ,"
b10 ."
b100000 M"
b100000 c"
b100000 :#
b11001 ,#
b10 B"
b10 \"
b10 a"
b10 9#
b10 G#
b10 L#
b10001000010000000000011 2#
b10 |"
b10 B#
b11 A#
b100 =#
b11100000010001000010 H
b11100101100000000100000000000100 )
b11100101100000000100000000000100 =
b11100101100000000100000000000100 O"
b11100101100000000100000000000100 r"
b11100101100000000100000000000100 Y#
b100000 K"
b100000 e"
b100000 8#
b1110 ?"
b1110 .#
b1110 Q#
b10 G"
b10 i"
b1 I"
b1 g"
b11 <"
b11 $#
b11 K#
b10 V"
b10 k"
b10 E#
b101 ="
b101 "#
b101 ##
b1011 !
b1011 &
b1011 +
b1011 9"
b1011 &#
b1011 W#
b1 #
b1 *
b1 E
b1 W"
b1 ["
b1 `"
b1 j"
b1 m"
b1 U#
b10 S"
b10 p"
b10 P#
b100 >"
b100 ~"
b100 !#
b1110 E"
b1110 b"
b1110 y"
b1011 F"
b1011 ]"
b1011 v"
b11100000010001000010000000000011 <
b11100000010001000010000000000011 P"
b11100000010001000010000000000011 s"
b100000 L"
b100000 5#
b100000 7#
b100000 H#
b11100 (
b11100 4
b11100 N"
b11100 6#
b11100 <#
b11100 X#
0D
08"
1$
#95
b10 ;"
b10 x"
b10 M#
18"
0$
